{
    "tags": {
        "allowUnknownTags": false,
        "dictionaries": ["jsdoc","closure"]
    },
    "source": {
        "includePattern": ".+\\.js(doc|x)?$",
        "excludePattern": "(^|\\/|\\\\)_"
    },
    "plugins": ["plugins/markdown"],
    "templates": {
        "cleverLinks": false,
        "monospaceLinks": false
    }
}
